\relax 
\providecommand\zref@newlabel[2]{}
\providecommand\hyper@newdestlabel[2]{}
\catcode `"\active 
\providecommand\HyperFirstAtBeginDocument{\AtBeginDocument}
\HyperFirstAtBeginDocument{\ifx\hyper@anchor\@undefined
\global\let\oldcontentsline\contentsline
\gdef\contentsline#1#2#3#4{\oldcontentsline{#1}{#2}{#3}}
\global\let\oldnewlabel\newlabel
\gdef\newlabel#1#2{\newlabelxx{#1}#2}
\gdef\newlabelxx#1#2#3#4#5#6{\oldnewlabel{#1}{{#2}{#3}}}
\AtEndDocument{\ifx\hyper@anchor\@undefined
\let\contentsline\oldcontentsline
\let\newlabel\oldnewlabel
\fi}
\fi}
\global\let\hyper@last\relax 
\gdef\HyperFirstAtBeginDocument#1{#1}
\providecommand\HyField@AuxAddToFields[1]{}
\providecommand\HyField@AuxAddToCoFields[2]{}
\@input{definitions.aux}
\select@language{english}
\@writefile{toc}{\select@language{english}}
\@writefile{lof}{\select@language{english}}
\@writefile{lot}{\select@language{english}}
\pgfsyspdfmark {pgfid2}{0}{55380990}
\pgfsyspdfmark {pgfid1}{5966969}{48967751}
\@writefile{toc}{\contentsline {chapter}{\numberline {1}Raspberry Pi - Operating system}{5}{chapter.1}}
\@writefile{lof}{\addvspace {10\p@ }}
\@writefile{lot}{\addvspace {10\p@ }}
\ttl@writefile{ptc}{\ttl@starttoc{default@1}}
\pgfsyspdfmark {pgfid4}{0}{55380990}
\pgfsyspdfmark {pgfid3}{5966969}{48967751}
\@writefile{toc}{\contentsline {section}{\numberline {1.1}Prepare the Raspbian image}{5}{section.1.1}}
\@writefile{toc}{\contentsline {subsection}{\numberline {1.1.1}Download the OS image}{5}{subsection.1.1.1}}
\@writefile{toc}{\contentsline {section}{\numberline {1.2}Extract the image archive}{5}{section.1.2}}
\@writefile{toc}{\contentsline {subsection}{\numberline {1.2.1}Windows}{5}{subsection.1.2.1}}
\@writefile{toc}{\contentsline {subsection}{\numberline {1.2.2}Linux}{5}{subsection.1.2.2}}
\@writefile{toc}{\contentsline {section}{\numberline {1.3}Copy image to SD card}{5}{section.1.3}}
\@writefile{toc}{\contentsline {subsection}{\numberline {1.3.1}Windows computer}{5}{subsection.1.3.1}}
\@writefile{toc}{\contentsline {subsection}{\numberline {1.3.2}Linux machine}{6}{subsection.1.3.2}}
\@writefile{toc}{\contentsline {chapter}{\numberline {2}Raspberry Pi - System installation}{7}{chapter.2}}
\@writefile{lof}{\addvspace {10\p@ }}
\@writefile{lot}{\addvspace {10\p@ }}
\ttl@writefile{ptc}{\ttl@stoptoc{default@1}}
\ttl@writefile{ptc}{\ttl@starttoc{default@2}}
\pgfsyspdfmark {pgfid6}{0}{55380990}
\pgfsyspdfmark {pgfid5}{5966969}{48967751}
\@writefile{toc}{\contentsline {section}{\numberline {2.1}Enable WIFI}{7}{section.2.1}}
\@writefile{toc}{\contentsline {section}{\numberline {2.2}Install necessary system packages}{7}{section.2.2}}
\@writefile{toc}{\contentsline {subsection}{\numberline {2.2.1}Update base system}{7}{subsection.2.2.1}}
\@writefile{toc}{\contentsline {subsection}{\numberline {2.2.2}GIT code version system}{8}{subsection.2.2.2}}
\@writefile{toc}{\contentsline {subsection}{\numberline {2.2.3}Install Python and PyQT}{8}{subsection.2.2.3}}
\@writefile{toc}{\contentsline {subsection}{\numberline {2.2.4}On-screen keyboard}{8}{subsection.2.2.4}}
\@writefile{toc}{\contentsline {subsection}{\numberline {2.2.5}Install a more modern browser}{8}{subsection.2.2.5}}
\@writefile{toc}{\contentsline {subsection}{\numberline {2.2.6}Install dark QT theme}{9}{subsection.2.2.6}}
\@writefile{toc}{\contentsline {section}{\numberline {2.3}Register MAXUM device in code repository}{9}{section.2.3}}
\@writefile{toc}{\contentsline {subsection}{\numberline {2.3.1}Create SSH keys}{9}{subsection.2.3.1}}
\@writefile{toc}{\contentsline {subsection}{\numberline {2.3.2}Add SSH key to bitbucket}{9}{subsection.2.3.2}}
\@writefile{toc}{\contentsline {section}{\numberline {2.4}Install the MAXUM 1200 software}{10}{section.2.4}}
\@writefile{toc}{\contentsline {subsection}{\numberline {2.4.1}Clone MAXUM 1200 software on the Raspberry Pi}{10}{subsection.2.4.1}}
\@writefile{toc}{\contentsline {subsection}{\numberline {2.4.2}Create new machine-specific software branch}{10}{subsection.2.4.2}}
\@writefile{toc}{\contentsline {subsection}{\numberline {2.4.3}Autostart GUI on bootup}{11}{subsection.2.4.3}}
\@writefile{toc}{\contentsline {chapter}{\numberline {3}Arduino IDE on Raspberry Pi}{13}{chapter.3}}
\@writefile{lof}{\addvspace {10\p@ }}
\@writefile{lot}{\addvspace {10\p@ }}
\ttl@writefile{ptc}{\ttl@stoptoc{default@2}}
\ttl@writefile{ptc}{\ttl@starttoc{default@3}}
\pgfsyspdfmark {pgfid8}{0}{55380990}
\pgfsyspdfmark {pgfid7}{5966969}{48967751}
\@writefile{toc}{\contentsline {section}{\numberline {3.1}Installation}{13}{section.3.1}}
\@writefile{toc}{\contentsline {subsection}{\numberline {3.1.1}IDE installaation}{13}{subsection.3.1.1}}
\@writefile{toc}{\contentsline {subsection}{\numberline {3.1.2}Library installation}{13}{subsection.3.1.2}}
\@writefile{toc}{\contentsline {section}{\numberline {3.2}Use the Arduino IDE}{13}{section.3.2}}
\ttl@finishall
